<?xml version="1.0" encoding="UTF-8" standalone="no"?>
<svg
   xmlns:dc="http://purl.org/dc/elements/1.1/"
   xmlns:cc="http://creativecommons.org/ns#"
   xmlns:rdf="http://www.w3.org/1999/02/22-rdf-syntax-ns#"
   xmlns:svg="http://www.w3.org/2000/svg"
   xmlns="http://www.w3.org/2000/svg"
   width="300"
   height="250"
   viewBox="0 0 79.374999 66.145835"
   version="1.1"
   id="svg6513">
  <defs
     id="defs6507" />
  <metadata
     id="metadata6510">
    <rdf:RDF>
      <cc:Work
         rdf:about="">
        <dc:format>image/svg+xml</dc:format>
        <dc:type
           rdf:resource="http://purl.org/dc/dcmitype/StillImage" />
        <dc:title></dc:title>
      </cc:Work>
    </rdf:RDF>
  </metadata>
  <g
     id="g23981"
     transform="matrix(0.63352564,0,0,0.63352564,-12.213525,-1343.6655)"
     style="stroke-width:0.417637">
    <path
       id="path3243"
       d="M 77.64607,2131.8296 59.513,2139.3974"
       style="fill:none;stroke:#000000;stroke-width:0.41763635;stroke-linecap:round;stroke-linejoin:round" />
    <path
       id="path3249"
       d="m 77.64607,2131.8296 21.03435,4.6665"
       style="fill:none;stroke:#000000;stroke-width:0.41763635;stroke-linecap:round;stroke-linejoin:round" />
    <path
       id="path3779"
       d="m 59.513,2139.3983 -18.13306,7.5678"
       style="fill:none;stroke:#000000;stroke-width:0.41763635;stroke-linecap:round;stroke-linejoin:round" />
    <path
       id="path3787"
       d="m 62.41429,2172.5699 v -20.9382"
       style="fill:none;stroke:#000000;stroke-width:0.41763635;stroke-linecap:round;stroke-linejoin:round" />
    <path
       id="path3799"
       d="m 41.37994,2146.967 -18.13306,7.5678"
       style="fill:none;stroke:#000000;stroke-width:0.41763635;stroke-linecap:round;stroke-linejoin:round" />
    <path
       id="path3801"
       d="m 44.28123,2159.2013 -21.03435,-4.6665"
       style="fill:none;stroke:#000000;stroke-width:0.41763635;stroke-linecap:round;stroke-linejoin:round" />
    <path
       id="path3803"
       d="m 62.4143,2151.6335 -18.13307,7.5678"
       style="fill:none;stroke:#000000;stroke-width:0.41763635;stroke-linecap:round;stroke-linejoin:round" />
    <path
       id="path3807"
       d="m 44.28123,2180.1386 v -20.9382"
       style="fill:none;stroke:#000000;stroke-width:0.41763635;stroke-linecap:round;stroke-linejoin:round" />
    <path
       id="path3809"
       d="m 62.4143,2172.5708 -18.13307,7.5678"
       style="fill:none;stroke:#000000;stroke-width:0.41763635;stroke-linecap:round;stroke-linejoin:round" />
    <path
       id="path3813"
       d="m 44.28123,2180.1389 -21.03435,-4.6665"
       style="fill:none;stroke:#000000;stroke-width:0.41763635;stroke-linecap:round;stroke-linejoin:round" />
    <path
       style="fill:none;stroke:#000000;stroke-width:0.41763635;stroke-linecap:round;stroke-linejoin:round"
       d="m 23.24688,2154.5357 v 20.9381"
       id="path3815" />
    <path
       id="path3849"
       d="m 98.68042,2199.3089 -18.13306,7.5678"
       style="fill:none;stroke:#000000;stroke-width:0.41763635;stroke-linecap:round;stroke-linejoin:round" />
    <path
       id="path3851"
       d="m 98.68042,2190.0041 v 9.3048"
       style="fill:none;stroke:#000000;stroke-width:0.41763635;stroke-linecap:round;stroke-linejoin:round" />
    <path
       id="path3867"
       d="m 62.41429,2193.5081 v -20.9382"
       style="fill:none;stroke:#000000;stroke-width:0.41763635;stroke-linecap:round;stroke-linejoin:round" />
    <path
       style="fill:none;stroke:#000000;stroke-width:0.41763635;stroke-linecap:round;stroke-linejoin:round"
       d="m 41.37994,2179.6052 v 9.2381"
       id="path3875" />
    <path
       id="path3883"
       d="m 98.68042,2136.4952 20.96046,4.6501"
       style="fill:none;stroke:#000000;stroke-width:0.41763635;stroke-linecap:round;stroke-linejoin:round" />
    <path
       style="fill:none;stroke:#000000;stroke-width:0.41763635;stroke-linecap:round;stroke-linejoin:round"
       d="m 140.60134,2145.7954 -18.06936,7.5413"
       id="path3891" />
    <path
       style="fill:none;stroke:#000000;stroke-width:0.41763635;stroke-linecap:round;stroke-linejoin:round"
       d="m 119.64088,2141.1453 20.96046,4.6501"
       id="path3893" />
    <path
       style="fill:none;stroke:#000000;stroke-width:0.41763635;stroke-linecap:round;stroke-linejoin:round"
       d="m 140.60134,2145.7946 v 20.8646"
       id="path3899" />
    <path
       id="path3907"
       d="M 83.43845,2156.2561 62.47799,2151.606"
       style="fill:none;stroke:#000000;stroke-width:0.41763635;stroke-linecap:round;stroke-linejoin:round" />
    <path
       id="path3911"
       d="m 83.43845,2177.1202 -20.96046,-4.6501"
       style="fill:none;stroke:#000000;stroke-width:0.41763635;stroke-linecap:round;stroke-linejoin:round" />
    <path
       style="fill:none;stroke:#000000;stroke-width:0.41763635;stroke-linecap:round;stroke-linejoin:round"
       d="m 104.39891,2160.9063 -20.96046,-4.6502"
       id="path3915" />
    <path
       style="fill:none;stroke:#000000;stroke-width:0.41763635;stroke-linecap:round;stroke-linejoin:round"
       d="m 122.46828,2153.365 -18.06937,7.5413"
       id="path3917" />
    <path
       style="fill:none;stroke:#000000;stroke-width:0.41763635;stroke-linecap:round;stroke-linejoin:round"
       d="m 104.39891,2181.77 v -20.8646"
       id="path3921" />
    <path
       style="fill:none;stroke:#000000;stroke-width:0.41763635;stroke-linecap:round;stroke-linejoin:round"
       d="m 122.46828,2174.2288 -18.06937,7.5412"
       id="path3923" />
    <path
       style="fill:none;stroke:#000000;stroke-width:0.41763635;stroke-linecap:round;stroke-linejoin:round"
       d="m 104.39891,2181.7703 -20.96046,-4.6501"
       id="path3927" />
    <path
       id="path3937"
       d="m 101.50782,2190.4436 -20.96047,-4.6501"
       style="fill:none;stroke:#000000;stroke-width:0.41763635;stroke-linecap:round;stroke-linejoin:round" />
    <path
       style="fill:none;stroke:#000000;stroke-width:0.41763635;stroke-linecap:round;stroke-linejoin:round"
       d="m 122.46828,2195.0934 v -20.8646"
       id="path3947" />
    <path
       style="fill:none;stroke:#000000;stroke-width:0.41763635;stroke-linecap:round;stroke-linejoin:round"
       d="m 140.53764,2187.5522 -18.06936,7.5412"
       id="path3949" />
    <path
       style="fill:none;stroke:#000000;stroke-width:0.41763635;stroke-linecap:round;stroke-linejoin:round"
       d="m 140.53764,2166.6876 v 20.8646"
       id="path3951" />
    <path
       style="fill:none;stroke:#000000;stroke-width:0.41763635;stroke-linecap:round;stroke-linejoin:round"
       d="m 122.46828,2195.0937 -20.96046,-4.6501"
       id="path3953" />
    <path
       style="fill:none;stroke:#000000;stroke-width:0.41763635;stroke-linecap:round;stroke-linejoin:round"
       d="m 62.414294,2214.4445 v -20.9382"
       id="path5786" />
    <path
       style="fill:none;stroke:#000000;stroke-width:0.41763635;stroke-linecap:round;stroke-linejoin:round"
       d="m 80.547356,2206.8767 -18.133062,7.5678"
       id="path5788" />
    <path
       style="fill:none;stroke:#000000;stroke-width:0.41763635;stroke-linecap:round;stroke-linejoin:round"
       d="m 62.414294,2214.4448 -21.034351,-4.6665"
       id="path5792" />
    <path
       id="path5794"
       d="m 41.379943,2188.8416 v 20.9381"
       style="fill:none;stroke:#000000;stroke-width:0.41763635;stroke-linecap:round;stroke-linejoin:round" />
    <path
       id="path5845"
       d="m 80.54735,2185.7935 v -9.2052"
       style="fill:none;stroke:#000000;stroke-width:0.41763635;stroke-linecap:round;stroke-linejoin:round" />
  </g>
</svg>
