<?xml version="1.0" encoding="UTF-8" standalone="no"?>
<svg
   xmlns:dc="http://purl.org/dc/elements/1.1/"
   xmlns:cc="http://creativecommons.org/ns#"
   xmlns:rdf="http://www.w3.org/1999/02/22-rdf-syntax-ns#"
   xmlns:svg="http://www.w3.org/2000/svg"
   xmlns="http://www.w3.org/2000/svg"
   width="300"
   height="250"
   viewBox="0 0 79.374999 66.145835"
   version="1.1"
   id="svg6513">
  <defs
     id="defs6507" />
  <metadata
     id="metadata6510">
    <rdf:RDF>
      <cc:Work
         rdf:about="">
        <dc:format>image/svg+xml</dc:format>
        <dc:type
           rdf:resource="http://purl.org/dc/dcmitype/StillImage" />
        <dc:title></dc:title>
      </cc:Work>
    </rdf:RDF>
  </metadata>
  <g
     id="g37369"
     transform="matrix(0.36874722,0,0,0.36874625,-198.93198,-1533.2104)"
     style="stroke-width:0.71752">
    <path
       style="fill:none;stroke:#000000;stroke-width:0.717513px;stroke-linecap:round;stroke-linejoin:miter;stroke-opacity:1"
       d="m 684.59891,4247.6258 37.49038,-1e-4"
       id="path37223" />
    <path
       style="fill:none;stroke:#000000;stroke-width:0.717513px;stroke-linecap:round;stroke-linejoin:miter;stroke-opacity:1"
       d="m 722.0891,4210.136 1.9e-4,37.4897"
       id="path37225" />
    <path
       style="fill:none;stroke:#000000;stroke-width:0.717513px;stroke-linecap:round;stroke-linejoin:miter;stroke-opacity:1"
       d="m 684.59879,4210.1358 1.2e-4,37.49"
       id="path37227" />
    <path
       style="fill:none;stroke:#000000;stroke-width:0.717513px;stroke-linecap:round;stroke-linejoin:miter;stroke-opacity:1"
       d="m 684.59879,4172.5049 h 37.49036"
       id="path37229" />
    <path
       style="fill:none;stroke:#000000;stroke-width:0.717513px;stroke-linecap:round;stroke-linejoin:miter;stroke-opacity:1"
       d="m 722.08934,4172.5753 -1.2e-4,37.49"
       id="path37231" />
    <path
       style="fill:none;stroke:#000000;stroke-width:0.717513px;stroke-linecap:round;stroke-linejoin:miter;stroke-opacity:1"
       d="m 684.5988,4172.5754 -3e-5,37.4899"
       id="path37233" />
    <path
       style="fill:none;stroke:#000000;stroke-width:0.717513px;stroke-linecap:round;stroke-linejoin:miter;stroke-opacity:1"
       d="m 647.10858,4247.6257 37.49033,1e-4"
       id="path37235" />
    <path
       style="fill:none;stroke:#000000;stroke-width:0.717513px;stroke-linecap:round;stroke-linejoin:miter;stroke-opacity:1"
       d="m 647.10845,4210.1361 1.3e-4,37.4896"
       id="path37237" />
    <path
       style="fill:none;stroke:#000000;stroke-width:0.717513px;stroke-linecap:round;stroke-linejoin:miter;stroke-opacity:1"
       d="m 647.1083,4172.5049 h 37.49049"
       id="path37239" />
    <path
       style="fill:none;stroke:#000000;stroke-width:0.717513px;stroke-linecap:round;stroke-linejoin:miter;stroke-opacity:1"
       d="m 647.10848,4172.5754 9e-5,37.4899"
       id="path37241" />
    <path
       style="fill:none;stroke:#000000;stroke-width:0.717513px;stroke-linecap:round;stroke-linejoin:miter;stroke-opacity:1"
       d="m 609.61821,4247.6257 h 37.49037"
       id="path37243" />
    <path
       style="fill:none;stroke:#000000;stroke-width:0.717513px;stroke-linecap:round;stroke-linejoin:miter;stroke-opacity:1"
       d="M 609.61805,4172.5049 H 647.1083"
       id="path37245" />
    <path
       style="fill:none;stroke:#000000;stroke-width:0.717513px;stroke-linecap:round;stroke-linejoin:miter;stroke-opacity:1"
       d="m 609.618,4172.5754 3e-5,37.49"
       id="path37247" />
    <path
       style="fill:none;stroke:#000000;stroke-width:0.717513px;stroke-linecap:round;stroke-linejoin:miter;stroke-opacity:1"
       d="m 572.12785,4210.136 37.49044,-1e-4"
       id="path37249" />
    <path
       style="fill:none;stroke:#000000;stroke-width:0.717513px;stroke-linecap:round;stroke-linejoin:miter;stroke-opacity:1"
       d="m 572.12775,4247.6964 h 37.49033"
       id="path37251" />
    <path
       style="fill:none;stroke:#000000;stroke-width:0.717513px;stroke-linecap:round;stroke-linejoin:miter;stroke-opacity:1"
       d="m 572.1278,4210.2063 -5e-5,37.4901"
       id="path37253" />
    <path
       style="fill:none;stroke:#000000;stroke-width:0.717513px;stroke-linecap:round;stroke-linejoin:miter;stroke-opacity:1"
       d="m 684.59871,4285.116 2e-4,-37.4902"
       id="path37255" />
    <path
       style="fill:none;stroke:#000000;stroke-width:0.717513px;stroke-linecap:round;stroke-linejoin:miter;stroke-opacity:1"
       d="m 684.59879,4322.6775 37.4904,-1e-4"
       id="path37257" />
    <path
       style="fill:none;stroke:#000000;stroke-width:0.717513px;stroke-linecap:round;stroke-linejoin:miter;stroke-opacity:1"
       d="m 722.08923,4285.1868 -4e-5,37.4906"
       id="path37259" />
    <path
       style="fill:none;stroke:#000000;stroke-width:0.717513px;stroke-linecap:round;stroke-linejoin:miter;stroke-opacity:1"
       d="m 722.08929,4247.6257 -2.5e-4,37.4909"
       id="path37261" />
    <path
       style="fill:none;stroke:#000000;stroke-width:0.717513px;stroke-linecap:round;stroke-linejoin:miter;stroke-opacity:1"
       d="m 647.10811,4285.116 h 37.4906"
       id="path37263" />
    <path
       style="fill:none;stroke:#000000;stroke-width:0.717513px;stroke-linecap:round;stroke-linejoin:miter;stroke-opacity:1"
       d="m 647.10867,4322.6772 37.49012,3e-4"
       id="path37265" />
    <path
       style="fill:none;stroke:#000000;stroke-width:0.717513px;stroke-linecap:round;stroke-linejoin:miter;stroke-opacity:1"
       d="m 647.10853,4285.1869 1.4e-4,37.4903"
       id="path37267" />
    <path
       style="fill:none;stroke:#000000;stroke-width:0.717513px;stroke-linecap:round;stroke-linejoin:miter;stroke-opacity:1"
       d="m 647.10858,4247.6257 2e-5,37.4909"
       id="path37269" />
  </g>
</svg>
