<?xml version="1.0" encoding="UTF-8" standalone="no"?>
<svg
   xmlns:dc="http://purl.org/dc/elements/1.1/"
   xmlns:cc="http://creativecommons.org/ns#"
   xmlns:rdf="http://www.w3.org/1999/02/22-rdf-syntax-ns#"
   xmlns:svg="http://www.w3.org/2000/svg"
   xmlns="http://www.w3.org/2000/svg"
   width="300"
   height="250"
   viewBox="0 0 79.374999 66.145835"
   version="1.1"
   id="svg6513">
  <defs
     id="defs6507" />
  <metadata
     id="metadata6510">
    <rdf:RDF>
      <cc:Work
         rdf:about="">
        <dc:format>image/svg+xml</dc:format>
        <dc:type
           rdf:resource="http://purl.org/dc/dcmitype/StillImage" />
        <dc:title></dc:title>
      </cc:Work>
    </rdf:RDF>
  </metadata>
  <g
     id="g37421"
     transform="matrix(-1.0974642e-7,-0.36874754,0.36874753,9.8967886e-8,-1521.8475,66.171931)"
     style="stroke-width:0.717521">
    <path
       style="fill:none;stroke:#000000;stroke-width:0.717511px;stroke-linecap:round;stroke-linejoin:miter;stroke-opacity:1"
       d="m 89.786275,4221.4203 -26.50967,-26.5097"
       id="path26727-1" />
    <path
       style="fill:none;stroke:#000000;stroke-width:0.717511px;stroke-linecap:round;stroke-linejoin:miter;stroke-opacity:1"
       d="m 36.767339,4221.42 26.509266,-26.5094"
       id="path26729-8" />
    <path
       style="fill:none;stroke:#000000;stroke-width:0.717511px;stroke-linecap:round;stroke-linejoin:miter;stroke-opacity:1"
       d="m 63.276943,4247.9297 26.509332,-26.5094"
       id="path26733-0" />
    <path
       style="fill:none;stroke:#000000;stroke-width:0.717511px;stroke-linecap:round;stroke-linejoin:miter;stroke-opacity:1"
       d="M 36.667862,4274.5388 10.15816,4248.0291"
       id="path37107" />
    <path
       style="fill:none;stroke:#000000;stroke-width:0.717511px;stroke-linecap:round;stroke-linejoin:miter;stroke-opacity:1"
       d="m 10.207984,4247.9792 26.509378,-26.5093"
       id="path37109" />
    <path
       style="fill:none;stroke:#000000;stroke-width:0.717511px;stroke-linecap:round;stroke-linejoin:miter;stroke-opacity:1"
       d="m 36.717711,4274.489 26.50946,-26.5094"
       id="path37111" />
    <path
       style="fill:none;stroke:#000000;stroke-width:0.717511px;stroke-linecap:round;stroke-linejoin:miter;stroke-opacity:1"
       d="M 116.2959,4247.93 89.786275,4221.4203"
       id="path37115" />
    <path
       style="fill:none;stroke:#000000;stroke-width:0.717511px;stroke-linecap:round;stroke-linejoin:miter;stroke-opacity:1"
       d="M 89.786728,4274.4392 116.2959,4247.93"
       id="path37117" />
    <path
       style="fill:none;stroke:#000000;stroke-width:0.717511px;stroke-linecap:round;stroke-linejoin:miter;stroke-opacity:1"
       d="M 63.177519,4301.0486 36.667862,4274.5388"
       id="path37119" />
    <path
       style="fill:none;stroke:#000000;stroke-width:0.717511px;stroke-linecap:round;stroke-linejoin:miter;stroke-opacity:1"
       d="m 63.227339,4300.9986 26.509366,-26.5094"
       id="path37121" />
    <path
       style="fill:none;stroke:#000000;stroke-width:0.717511px;stroke-linecap:round;stroke-linejoin:miter;stroke-opacity:1"
       d="M 142.80561,4274.4396 116.2959,4247.93"
       id="path37125" />
    <path
       style="fill:none;stroke:#000000;stroke-width:0.717511px;stroke-linecap:round;stroke-linejoin:miter;stroke-opacity:1"
       d="M 89.687218,4327.5582 63.177519,4301.0486"
       id="path37129" />
    <path
       style="fill:none;stroke:#000000;stroke-width:0.717511px;stroke-linecap:round;stroke-linejoin:miter;stroke-opacity:1"
       d="m 89.736999,4327.5084 26.509541,-26.5095"
       id="path37131" />
    <path
       style="fill:none;stroke:#000000;stroke-width:0.717511px;stroke-linecap:round;stroke-linejoin:miter;stroke-opacity:1"
       d="m 142.80601,4327.4586 -26.50973,-26.5097"
       id="path37133" />
    <path
       style="fill:none;stroke:#000000;stroke-width:0.717511px;stroke-linecap:round;stroke-linejoin:miter;stroke-opacity:1"
       d="m 169.36537,4300.8994 -26.50973,-26.5097"
       id="path37135" />
    <path
       style="fill:none;stroke:#000000;stroke-width:0.717511px;stroke-linecap:round;stroke-linejoin:miter;stroke-opacity:1"
       d="m 142.85575,4327.409 26.50962,-26.5096"
       id="path37137" />
    <path
       style="fill:none;stroke:#000000;stroke-width:0.717511px;stroke-linecap:round;stroke-linejoin:miter;stroke-opacity:1"
       d="M 116.29622,4194.9104 89.786701,4168.4007"
       id="path37143" />
    <path
       style="fill:none;stroke:#000000;stroke-width:0.717511px;stroke-linecap:round;stroke-linejoin:miter;stroke-opacity:1"
       d="m 142.85585,4168.3509 -26.50974,-26.5098"
       id="path37145" />
    <path
       style="fill:none;stroke:#000000;stroke-width:0.717511px;stroke-linecap:round;stroke-linejoin:miter;stroke-opacity:1"
       d="m 89.836271,4168.3509 26.509839,-26.5098"
       id="path37147" />
    <path
       style="fill:none;stroke:#000000;stroke-width:0.717511px;stroke-linecap:round;stroke-linejoin:miter;stroke-opacity:1"
       d="m 63.276605,4194.9106 26.510096,-26.5099"
       id="path37151" />
    <path
       style="fill:none;stroke:#000000;stroke-width:0.717511px;stroke-linecap:round;stroke-linejoin:miter;stroke-opacity:1"
       d="m 89.786275,4221.4203 26.509945,-26.5099"
       id="path37153" />
    <path
       style="fill:none;stroke:#000000;stroke-width:0.717511px;stroke-linecap:round;stroke-linejoin:miter;stroke-opacity:1"
       d="m 169.36538,4194.8605 -26.50953,-26.5096"
       id="path37169" />
    <path
       style="fill:none;stroke:#000000;stroke-width:0.717511px;stroke-linecap:round;stroke-linejoin:miter;stroke-opacity:1"
       d="m 142.85569,4221.3703 26.50969,-26.5098"
       id="path37171" />
    <path
       style="fill:none;stroke:#000000;stroke-width:0.717511px;stroke-linecap:round;stroke-linejoin:miter;stroke-opacity:1"
       d="m 116.2959,4247.93 26.51007,-26.5101"
       id="path37173" />
  </g>
</svg>
