<?xml version="1.0" encoding="UTF-8" standalone="no"?>
<svg
   xmlns:dc="http://purl.org/dc/elements/1.1/"
   xmlns:cc="http://creativecommons.org/ns#"
   xmlns:rdf="http://www.w3.org/1999/02/22-rdf-syntax-ns#"
   xmlns:svg="http://www.w3.org/2000/svg"
   xmlns="http://www.w3.org/2000/svg"
   width="300"
   height="250"
   viewBox="0 0 79.374999 66.145835"
   version="1.1"
   id="svg6513">
  <defs
     id="defs6507" />
  <metadata
     id="metadata6510">
    <rdf:RDF>
      <cc:Work
         rdf:about="">
        <dc:format>image/svg+xml</dc:format>
        <dc:type
           rdf:resource="http://purl.org/dc/dcmitype/StillImage" />
        <dc:title></dc:title>
      </cc:Work>
    </rdf:RDF>
  </metadata>
  <g
     transform="matrix(0.66318688,0,0,0.66318688,-135.37342,-604.88561)"
     id="g3662"
     style="stroke-width:0.39896">
    <path
       style="opacity:1;fill:none;stroke:#000000;stroke-width:0.39895743;stroke-linecap:round;stroke-linejoin:round;stop-opacity:1"
       d="m 303.23446,945.69576 16.87886,7.04185"
       id="path3518" />
    <path
       style="opacity:1;fill:none;stroke:#000000;stroke-width:0.39895743;stroke-linecap:round;stroke-linejoin:round;stop-opacity:1"
       d="m 280.96736,961.42221 39.14596,-8.6846"
       id="path3520" />
    <path
       style="opacity:1;fill:none;stroke:#000000;stroke-width:0.39895743;stroke-linecap:round;stroke-linejoin:round;stop-opacity:1"
       d="m 264.0924,954.37785 16.87496,7.04436"
       id="path3522" />
    <path
       style="opacity:1;fill:none;stroke:#000000;stroke-width:0.39895743;stroke-linecap:round;stroke-linejoin:round;stop-opacity:1"
       d="M 280.96736,980.74755 V 961.42056"
       id="path3524" />
    <path
       style="opacity:1;fill:none;stroke:#000000;stroke-width:0.39895743;stroke-linecap:round;stroke-linejoin:round;stop-opacity:1"
       d="m 247.22084,947.33652 v 19.30261"
       id="path3526" />
    <path
       style="opacity:1;fill:none;stroke:#000000;stroke-width:0.39895743;stroke-linecap:round;stroke-linejoin:round;stop-opacity:1"
       d="m 280.96736,1000.3881 39.14596,-8.68462"
       id="path3528" />
    <path
       id="path3530"
       d="m 320.11332,952.73925 v 38.96697"
       style="opacity:1;fill:none;stroke:#000000;stroke-width:0.39895743;stroke-linecap:round;stroke-linejoin:round;stop-opacity:1" />
    <path
       id="path3532"
       d="m 286.36288,919.17208 16.87158,7.04131"
       style="opacity:1;fill:none;stroke:#000000;stroke-width:0.39895743;stroke-linecap:round;stroke-linejoin:round;stop-opacity:1" />
    <path
       id="path3534"
       d="m 283.66343,930.55526 19.57103,-4.34187"
       style="opacity:1;fill:none;stroke:#000000;stroke-width:0.39895743;stroke-linecap:round;stroke-linejoin:round;stop-opacity:1" />
    <path
       id="path3536"
       d="m 286.36288,919.17208 -19.57103,4.34186"
       style="opacity:1;fill:none;stroke:#000000;stroke-width:0.39895743;stroke-linecap:round;stroke-linejoin:round;stop-opacity:1" />
    <path
       id="path3538"
       d="m 283.66343,950.03626 19.57103,-4.34187"
       style="opacity:1;fill:none;stroke:#000000;stroke-width:0.39895743;stroke-linecap:round;stroke-linejoin:round;stop-opacity:1" />
    <path
       style="opacity:1;fill:none;stroke:#000000;stroke-width:0.39895743;stroke-linecap:round;stroke-linejoin:round;stop-opacity:1"
       d="m 303.23446,926.21422 v 19.48154"
       id="path3540" />
    <path
       style="opacity:1;fill:none;stroke:#000000;stroke-width:0.39895743;stroke-linecap:round;stroke-linejoin:round;stop-opacity:1"
       d="m 264.0924,934.89713 19.57103,-4.34187"
       id="path3542" />
    <path
       style="opacity:1;fill:none;stroke:#000000;stroke-width:0.39895743;stroke-linecap:round;stroke-linejoin:round;stop-opacity:1"
       d="m 247.22082,927.85581 16.87158,7.04132"
       id="path3544" />
    <path
       style="opacity:1;fill:none;stroke:#000000;stroke-width:0.39895743;stroke-linecap:round;stroke-linejoin:round;stop-opacity:1"
       d="m 266.79185,923.51394 -19.57103,4.34187"
       id="path3546" />
    <path
       style="opacity:1;fill:none;stroke:#000000;stroke-width:0.39895743;stroke-linecap:round;stroke-linejoin:round;stop-opacity:1"
       d="M 264.0924,954.37785 V 934.8963"
       id="path3548" />
    <path
       style="opacity:1;fill:none;stroke:#000000;stroke-width:0.39895743;stroke-linecap:round;stroke-linejoin:round;stop-opacity:1"
       d="m 247.22082,927.85499 v 19.48154"
       id="path3550" />
    <path
       style="opacity:1;fill:none;stroke:#000000;stroke-width:0.39895743;stroke-linecap:round;stroke-linejoin:round;stop-opacity:1"
       d="m 264.0924,954.37812 19.57103,-4.34186"
       id="path3552" />
    <path
       style="opacity:1;fill:none;stroke:#000000;stroke-width:0.39895743;stroke-linecap:round;stroke-linejoin:round;stop-opacity:1"
       d="m 247.10521,966.70612 16.93105,7.06614"
       id="path3554" />
    <path
       style="opacity:1;fill:none;stroke:#000000;stroke-width:0.39895743;stroke-linecap:round;stroke-linejoin:round;stop-opacity:1"
       d="m 244.39624,997.67966 16.93106,7.06614"
       id="path3556" />
    <path
       style="opacity:1;fill:none;stroke:#000000;stroke-width:0.39895743;stroke-linecap:round;stroke-linejoin:round;stop-opacity:1"
       d="m 247.10521,966.70612 -19.64003,4.35717"
       id="path3558" />
    <path
       style="opacity:1;fill:none;stroke:#000000;stroke-width:0.39895743;stroke-linecap:round;stroke-linejoin:round;stop-opacity:1"
       d="m 264.03626,973.77227 16.93105,7.06614"
       id="path3562" />
    <path
       style="opacity:1;fill:none;stroke:#000000;stroke-width:0.39895743;stroke-linecap:round;stroke-linejoin:round;stop-opacity:1"
       d="m 261.32729,985.19559 19.64002,-4.35718"
       id="path3564" />
    <path
       style="opacity:1;fill:none;stroke:#000000;stroke-width:0.39895743;stroke-linecap:round;stroke-linejoin:round;stop-opacity:1"
       d="m 261.32729,1004.7453 19.64002,-4.3572"
       id="path3566" />
    <path
       id="path3572"
       d="m 227.46518,971.06329 -19.64003,4.35717"
       style="opacity:1;fill:none;stroke:#000000;stroke-width:0.39895743;stroke-linecap:round;stroke-linejoin:round;stop-opacity:1" />
    <path
       id="path3574"
       d="M 224.75621,1002.036 V 982.48578"
       style="opacity:1;fill:none;stroke:#000000;stroke-width:0.39895743;stroke-linecap:round;stroke-linejoin:round;stop-opacity:1" />
    <path
       id="path3576"
       d="m 207.82515,994.96986 16.93106,7.06614"
       style="opacity:1;fill:none;stroke:#000000;stroke-width:0.39895743;stroke-linecap:round;stroke-linejoin:round;stop-opacity:1" />
    <path
       id="path3578"
       d="m 207.82515,975.41964 v 19.55022"
       style="opacity:1;fill:none;stroke:#000000;stroke-width:0.39895743;stroke-linecap:round;stroke-linejoin:round;stop-opacity:1" />
    <path
       style="opacity:1;fill:none;stroke:#000000;stroke-width:0.39895743;stroke-linecap:round;stroke-linejoin:round;stop-opacity:1"
       d="m 244.39624,978.12944 -19.64003,4.35717"
       id="path3616" />
    <path
       style="opacity:1;fill:none;stroke:#000000;stroke-width:0.39895743;stroke-linecap:round;stroke-linejoin:round;stop-opacity:1"
       d="M 244.39624,997.67966 V 978.12944"
       id="path3618" />
    <path
       style="opacity:1;fill:none;stroke:#000000;stroke-width:0.39895743;stroke-linecap:round;stroke-linejoin:round;stop-opacity:1"
       d="m 244.39624,997.67966 -19.64003,4.35714"
       id="path3620" />
    <path
       id="path3622"
       d="M 261.32729,1004.7458 V 985.19559"
       style="opacity:1;fill:none;stroke:#000000;stroke-width:0.39895743;stroke-linecap:round;stroke-linejoin:round;stop-opacity:1" />
    <path
       id="path3624"
       d="m 207.82515,975.42046 16.93106,7.06615"
       style="opacity:1;fill:none;stroke:#000000;stroke-width:0.39895743;stroke-linecap:round;stroke-linejoin:round;stop-opacity:1" />
    <path
       style="opacity:1;fill:none;stroke:#000000;stroke-width:0.39895743;stroke-linecap:round;stroke-linejoin:round;stop-opacity:1"
       d="m 244.39623,978.12944 16.93106,7.06615"
       id="path3626" />
  </g>
</svg>
